30
30
1
134
128
148
100
71
73
86
98
100
101
102
101
100
101
100
98
94
96
80
121
128
129
128
132
213
86
94
94
94
79
131
132
141
100
67
71
83
96
97
99
98
99
94
96
101
98
96
93
87
95
139
136
131
125
189
124
94
94
60
22
136
140
134
99
68
72
83
91
92
93
96
91
90
91
92
96
95
93
84
89
125
130
127
124
111
218
76
65
28
19
149
79
143
100
63
67
80
88
91
90
101
112
133
156
177
186
86
88
80
86
116
126
115
113
111
150
194
20
23
25
118
73
145
97
62
67
78
87
90
74
93
105
113
153
178
188
193
70
72
85
126
84
114
112
115
126
16
23
23
12
54
67
144
92
64
66
79
88
74
89
89
113
115
149
193
204
196
215
48
82
125
68
96
112
116
17
25
30
45
125
61
69
141
96
60
71
77
100
75
86
104
110
84
181
174
192
198
201
218
65
126
68
17
159
68
27
26
27
121
142
63
68
145
96
59
68
77
170
75
96
102
102
142
163
176
177
184
201
199
149
128
45
167
200
144
24
24
118
138
136
66
72
149
101
59
64
76
137
73
84
107
118
143
157
159
164
159
181
173
176
192
202
194
196
38
24
37
126
137
135
60
73
150
106
62
65
68
146
78
98
94
114
126
138
141
142
153
152
149
187
185
191
203
126
16
26
127
141
139
140
68
79
154
108
61
65
57
183
120
82
107
102
98
60
121
73
26
147
185
185
195
198
55
193
22
31
136
138
135
134
70
78
151
109
59
68
69
189
125
104
96
92
50
20
41
23
141
167
173
184
86
140
176
28
23
122
147
143
136
134
73
66
151
112
56
63
71
62
110
93
79
28
24
21
19
113
168
164
182
185
55
111
22
31
26
121
147
146
141
135
71
68
152
112
62
69
92
76
75
93
14
29
21
69
152
147
151
160
190
202
25
125
32
21
102
144
128
134
140
133
68
60
155
116
59
70
83
156
150
74
19
25
52
97
140
82
70
156
174
192
26
147
37
29
111
139
143
138
133
121
63
46
157
116
59
63
177
96
69
77
29
29
43
172
44
14
38
102
196
75
24
113
34
25
138
132
134
134
129
115
68
39
159
122
66
104
54
69
24
87
20
18
153
66
117
101
129
89
180
90
26
81
24
102
134
130
131
122
146
181
47
31
158
120
69
57
47
70
24
39
30
101
75
86
120
161
134
94
209
108
29
41
30
117
134
128
125
133
187
193
48
16
153
119
81
51
50
108
27
96
21
153
17
83
113
129
112
99
206
103
22
13
15
139
132
130
118
187
203
202
49
62
147
124
61
49
34
84
35
38
89
31
27
83
103
120
128
120
170
92
35
23
53
139
130
128
114
192
201
206
29
59
153
126
59
46
34
59
72
203
30
15
14
75
96
94
81
70
77
20
41
33
118
135
130
125
123
207
204
207
26
65
157
128
75
46
46
92
72
159
31
30
30
48
84
104
96
94
77
28
41
51
132
137
136
126
136
210
206
204
20
75
151
123
60
34
22
65
121
29
40
28
29
32
27
79
123
126
24
42
61
49
128
128
131
121
184
207
198
85
80
23
148
128
27
77
64
74
80
104
41
26
23
32
84
98
107
146
188
189
51
47
120
109
79
80
195
198
18
56
119
36
157
127
22
32
43
60
63
134
103
31
30
84
80
103
111
140
165
192
210
32
129
124
117
113
210
115
64
65
64
40
163
132
30
18
20
25
98
137
130
34
29
88
95
103
111
129
158
188
208
3
129
119
111
214
212
63
76
79
29
77
158
131
21
40
32
27
45
61
20
27
51
81
101
107
104
119
146
184
199
96
127
124
111
181
173
65
73
69
12
129
154
138
22
41
42
28
89
87
25
15
85
52
103
107
103
114
134
166
197
208
62
40
97
167
68
49
67
57
92
151
154
142
25
31
58
21
38
43
19
60
32
94
103
111
112
104
122
147
185
204
74
72
68
93
45
66
85
38
32
194
153
132
27
42
62
107
25
79
24
79
91
98
102
107
114
116
122
142
170
197
51
91
85
88
70
55
77
33
