# vsim "+TESTNAME=sub_tb" -l ../result/sub_tb.log -c sub_tb -voptargs="+acc" -wlf ../result/sub_tb.wlf -novopt -assertdebug -do "log -r -d 6/*; add wave * /*; run 100000ms " 
# Start time: 12:34:06 on Nov 27,2018
# Loading work.sub_tb
# Loading work.subtractor
# Loading work.subtract_bit
# log -r -d 6/*
# ambiguous option "-d": must be -class, -depth, -drivers, -flush, -howmany, -in, -inout, -internals, -mvcall, -mvcovm, -mvcreccomplete, -noflush, -optcells, -out, -ports, -recursive, -type, -wdbwave, -obj, -filter, or -nofilter
# Usage: log -flush <object> | {[-filter <f> | -nofilter <f>] [-howmany] {[-in] [-inout] [-out] | [-ports]} [-internal] [-recursive [-depth <level>]] <object_name> ...}
#  add wave * /*
#  run 100000ms 
# Expected: 00000000. Simulatation: 000000000 --> PASS
# Expected: 10100010. Simulatation: 110100010 --> PASS
# Expected: 01010101. Simulatation: 001010101 --> PASS
# Expected: 01010010. Simulatation: 001010010 --> PASS
# Expected: 10010110. Simulatation: 110010110 --> PASS
# Expected: 01100000. Simulatation: 001100000 --> PASS
# Expected: 00000001. Simulatation: 000000001 --> PASS
# Expected: 01101110. Simulatation: 001101110 --> PASS
# Expected: 10011101. Simulatation: 110011101 --> PASS
# Expected: 00100011. Simulatation: 000100011 --> PASS
# Expected: 10001111. Simulatation: 010001111 --> PASS
# Expected: 01011001. Simulatation: 001011001 --> PASS
# Expected: 01110101. Simulatation: 101110101 --> PASS
# Expected: 10000010. Simulatation: 010000010 --> PASS
# Expected: 11100111. Simulatation: 111100111 --> PASS
# Expected: 01010011. Simulatation: 101010011 --> PASS
# Expected: 10101100. Simulatation: 010101100 --> PASS
# Expected: 10001110. Simulatation: 010001110 --> PASS
# Expected: 01001001. Simulatation: 001001001 --> PASS
# Expected: 11101110. Simulatation: 111101110 --> PASS
# Expected: 11110000. Simulatation: 111110000 --> PASS
# Expected: 10010001. Simulatation: 010010001 --> PASS
# Expected: 11101011. Simulatation: 111101011 --> PASS
# Expected: 00000001. Simulatation: 000000001 --> PASS
# Expected: 00100011. Simulatation: 100100011 --> PASS
# Expected: 00010101. Simulatation: 000010101 --> PASS
# Expected: 10010110. Simulatation: 110010110 --> PASS
# Expected: 01000010. Simulatation: 001000010 --> PASS
# Expected: 01000000. Simulatation: 001000000 --> PASS
# Expected: 10000110. Simulatation: 010000110 --> PASS
# Expected: 01001010. Simulatation: 101001010 --> PASS
# Expected: 00111010. Simulatation: 000111010 --> PASS
# Expected: 00010000. Simulatation: 000010000 --> PASS
# Expected: 01001011. Simulatation: 101001011 --> PASS
# Expected: 00011100. Simulatation: 000011100 --> PASS
# Expected: 00010101. Simulatation: 000010101 --> PASS
# Expected: 11111000. Simulatation: 111111000 --> PASS
# Expected: 11010011. Simulatation: 011010011 --> PASS
# Expected: 01110011. Simulatation: 001110011 --> PASS
# Expected: 00011010. Simulatation: 000011010 --> PASS
# Expected: 11100101. Simulatation: 111100101 --> PASS
# Expected: 00111100. Simulatation: 100111100 --> PASS
# Expected: 10101111. Simulatation: 110101111 --> PASS
# Expected: 00110101. Simulatation: 000110101 --> PASS
# Expected: 01111111. Simulatation: 101111111 --> PASS
# Expected: 01000001. Simulatation: 001000001 --> PASS
# Expected: 01101101. Simulatation: 001101101 --> PASS
# Expected: 01011101. Simulatation: 001011101 --> PASS
# Expected: 10111111. Simulatation: 110111111 --> PASS
# Expected: 00000001. Simulatation: 000000001 --> PASS
# Expected: 01111101. Simulatation: 101111101 --> PASS
# Expected: 01101100. Simulatation: 001101100 --> PASS
# Expected: 00010011. Simulatation: 000010011 --> PASS
# Expected: 01000001. Simulatation: 001000001 --> PASS
# Expected: 10110101. Simulatation: 110110101 --> PASS
# Expected: 11111010. Simulatation: 111111010 --> PASS
# Expected: 00100110. Simulatation: 000100110 --> PASS
# Expected: 11010100. Simulatation: 011010100 --> PASS
# Expected: 10101011. Simulatation: 110101011 --> PASS
# Expected: 11110101. Simulatation: 111110101 --> PASS
# Expected: 01011100. Simulatation: 001011100 --> PASS
# Expected: 10111010. Simulatation: 010111010 --> PASS
# Expected: 10100001. Simulatation: 110100001 --> PASS
# Expected: 01101111. Simulatation: 101101111 --> PASS
# Expected: 01010110. Simulatation: 001010110 --> PASS
# Expected: 10100010. Simulatation: 110100010 --> PASS
# Expected: 01111110. Simulatation: 101111110 --> PASS
# Expected: 01110110. Simulatation: 101110110 --> PASS
# Expected: 01011010. Simulatation: 101011010 --> PASS
# Expected: 01100111. Simulatation: 101100111 --> PASS
# Expected: 01001100. Simulatation: 001001100 --> PASS
# Expected: 01100010. Simulatation: 001100010 --> PASS
# Expected: 11111110. Simulatation: 111111110 --> PASS
# Expected: 00100111. Simulatation: 100100111 --> PASS
# Expected: 11111111. Simulatation: 111111111 --> PASS
# Expected: 01100101. Simulatation: 001100101 --> PASS
# Expected: 11111101. Simulatation: 111111101 --> PASS
# Expected: 10100100. Simulatation: 110100100 --> PASS
# Expected: 11110101. Simulatation: 111110101 --> PASS
# Expected: 11011101. Simulatation: 111011101 --> PASS
# Expected: 10001100. Simulatation: 110001100 --> PASS
# Expected: 01110101. Simulatation: 101110101 --> PASS
# Expected: 00011001. Simulatation: 000011001 --> PASS
# Expected: 00010010. Simulatation: 000010010 --> PASS
# Expected: 00011011. Simulatation: 100011011 --> PASS
# Expected: 11000000. Simulatation: 111000000 --> PASS
# Expected: 11100011. Simulatation: 111100011 --> PASS
# Expected: 00001001. Simulatation: 000001001 --> PASS
# Expected: 11100010. Simulatation: 111100010 --> PASS
# Expected: 00010001. Simulatation: 000010001 --> PASS
# Expected: 01000111. Simulatation: 101000111 --> PASS
# Expected: 00000110. Simulatation: 000000110 --> PASS
# Expected: 11111100. Simulatation: 111111100 --> PASS
# Expected: 11011101. Simulatation: 011011101 --> PASS
# Expected: 11000110. Simulatation: 011000110 --> PASS
# Expected: 01010011. Simulatation: 101010011 --> PASS
# Expected: 10101010. Simulatation: 110101010 --> PASS
# Expected: 10000101. Simulatation: 110000101 --> PASS
# Expected: 10101100. Simulatation: 110101100 --> PASS
# Expected: 00000010. Simulatation: 000000010 --> PASS
# ** Note: $finish    : ../CNN_IP/Lib_Cells/sub_tb.v(13)
#    Time: 1500 ns  Iteration: 0  Instance: /sub_tb
# End time: 12:34:07 on Nov 27,2018, Elapsed time: 0:00:01
# Errors: 0, Warnings: 0
