28
28
1
0
0
0
0
2
4
2
0
2
2
1
0
0
2
3
2
3
1
0
2
0
0
2
9
0
0
0
0
0
1
1
0
0
0
0
1
0
0
0
0
3
7
4
0
1
0
0
1
3
1
0
0
0
0
0
0
0
0
1
0
0
0
1
4
2
2
3
3
3
3
3
4
2
2
1
2
4
5
2
0
0
0
0
0
1
0
0
2
2
2
2
5
3
4
2
0
1
5
4
0
0
0
0
0
0
4
4
2
0
0
0
0
4
0
0
2
4
2
0
0
0
6
8
2
0
0
1
0
0
4
6
3
0
0
0
1
0
0
0
0
6
1
0
2
2
0
0
1
4
0
0
4
5
1
3
10
0
0
2
4
2
0
0
1
0
0
0
0
4
0
0
2
0
0
5
16
0
7
10
3
0
0
0
0
16
2
0
0
4
2
2
5
0
0
0
0
0
0
2
3
0
1
16
35
148
226
255
193
134
133
144
135
70
39
12
8
9
3
0
0
0
0
0
0
1
0
0
2
14
5
45
255
255
247
255
250
254
244
253
246
247
252
252
244
152
0
5
3
0
0
0
0
1
6
9
0
0
0
53
241
254
204
186
196
212
202
208
201
234
224
248
246
186
8
4
0
0
0
0
0
0
1
9
2
8
3
21
113
72
23
3
8
6
0
3
0
24
128
252
255
170
4
7
17
0
0
0
0
6
0
0
0
11
6
0
3
10
0
0
2
0
2
6
0
51
224
254
234
67
14
0
0
0
0
0
0
7
2
5
0
0
0
5
0
0
0
0
2
5
21
4
1
157
255
246
100
0
8
4
2
0
0
0
0
0
1
10
5
0
0
10
7
7
4
1
4
0
1
0
63
244
254
229
41
19
2
1
2
0
0
0
0
0
1
3
2
0
0
3
0
0
1
4
10
1
4
33
197
251
235
48
9
4
15
6
1
0
0
0
0
2
2
0
0
3
2
2
0
7
6
0
0
0
6
45
248
251
225
2
0
1
0
0
4
0
0
0
0
0
0
0
0
0
0
0
0
0
11
2
0
2
49
230
251
254
36
2
6
0
10
0
6
0
0
0
0
0
0
0
0
0
0
0
0
16
0
1
2
18
160
243
255
154
10
2
7
1
8
1
0
0
0
0
0
0
0
0
0
0
0
0
0
0
3
1
0
116
255
253
213
47
0
3
5
0
3
6
0
0
0
0
0
0
0
0
0
0
0
0
0
0
0
10
16
201
252
245
58
1
1
4
2
0
0
9
1
0
0
0
0
0
0
0
0
0
0
0
0
0
21
4
14
255
242
216
20
0
10
1
1
6
0
5
2
0
0
0
0
0
0
0
0
0
0
0
0
13
0
5
89
245
255
182
29
1
7
0
2
12
1
0
0
0
0
0
0
0
0
0
0
0
0
0
0
1
5
6
180
244
255
71
0
0
0
1
1
7
6
0
0
0
0
0
0
0
0
0
0
0
0
0
0
0
7
3
253
249
255
60
3
0
0
8
0
0
7
0
6
0
0
0
0
0
0
0
0
0
0
0
0
0
5
102
250
254
236
35
0
0
0
0
0
0
0
0
0
0
0
0
0
0
0
0
0
0
0
0
0
1
0
145
253
238
199
0
6
0
0
0
0
0
0
0
0
0
0
0
0
0
0
0
0
0
0
0
0
1
9
42
255
245
44
0
4
0
0
0
0
0
0
0
0
0
0
0
0
0
0
0
0
0
0
0
0
4
0
18
0
1
16
0
2
0
0
0
0
0
0
0
0
0
0
0
0
