10111101100111111100010011110000
10111110110011110011110111010001
10111111001110110101011001111010
00111110001010010101000100010010
10111110100010011111100001010000
00111100110111101110000001000100
00111110100110111110000111010110
00111101111101001111111011010101
10111111001011010010100000010001
10111111000000010001011111110101
10111111000011000001110000001101
10111110100010010111111010111100
10111110011011100110011001101111
10111110000000001101111001001001
10111111100110111101100011100110
10111111000001100010100111110001
00111110101010110001011110100101
00111110001001111100110000100111
00111101110101011001100110100100
00111100000000000111100000100101
10111100011101000110101001000000
00111010110111001000111000011100
10111110001111010001010110111100
10111110100000011111110001101011
00111101100110001001010100100010
10111111000110000101000111010111
10111110100011010100011010100010
10111110101101011111011010101001
00111101111000111010101100101111
10111110110000000000011111000111
10111101100101010111101101100100
10111110001010110000010000001110
00111101110010011011001011100000
00111101001111000001100000001010
00111101111110001100000010001010
00111101011011011011000001000000
00111101010010100000101000000100
10111110000010001001000101001000
11000000000011001110001100011110
00111110101111010001110000101010
00111101100111010010010010000100
10111110001010000011000101100000
10111101000101000111110110101001
00111011010100011100010001111101
10111100100111100011011011110111
00111110111101001101001101101100
00111110000110001101111111011011
00111111000111010000001001000000
00111101110111000111100101011011
00111100100111010110001000010110
00111110100011110111010001001100
10111111101101101101110011110110
00111111011111010011111010100110
10111110110111101001110110110111
10111110010110101011110100010011
00111101010000110011101011010101
00111100110010101001110000100000
00111101111111100001111000100110
00111101101100010011001000101110
00111101111111111000011011100010
00111110101000100101000010010100
00111110010011110101011011001011
00111101100011100010010101100110
00111110100001011111011100110001
10111111011000101100111010000110
00111111001010101001001011110101
10111110110110111111100100111010
10111100001010100000001011011110
10111110000111110101001001000001
10111101110101000011101100010110
10111101100100110110000111100001
10111110110000111011010111100110
10111111010011101110000001111101
10111011100110110110010000011000
10111110010010001101010000001110
00111110101110001010000111100000
00111110101000001010111111001001
10111111000001000000011100000000
10111111010001100111000110100100
10111110100111000011000110101001
00111111000101001100010111000101
00111110011100010011101101111001
00111110001001100110101100100110
00111110001010001001000001000110
10111111001101111101101110011010
10111111100011111001011000101101
10111101111111101100111111000110
10111110010000111101010001000101
10111101110111101100011010111101
00111110110101111011010001001111
00111110001111011101011111110110
10111111100011110101111110101000
00111110100011110101110100111000
00111110100000011011010000101100
00111110001100011110100010001101
00111110101111011101110010110011
00111110100100110011111100111101
10111111110000001010001110000000
10111110100000001101110110111011
10111110010000011000111100010000
00111101010101011010111110100100
00111110000111110010101110000100
00111110100110010000100101001110
00111110101010011010101001001101
10111111001000101111100101000100
00111101100010100011001000100110
00111101100001010100010100010101
00111110111011001011001111001110
00111110001010001111011101101101
10111100000111111111001001000100
10111111100100101010110011101000
10111110011000010000101001010110
00111110101001100111000110101010
10111101011101111001110011110000
00111110000000011110000110000011
10111101100101101001010101000100
10111111000010010110111010001111
00111101110100011001101111111010
00111101100100111101010001000110
00111100100111111011110011001100
10111011101001110001000110011101
00111111000100010101011100010010
00111110100111110110001111000110
10111110011010111000111010001010
00111110101101001011110110011011
10111110010101110100011110110111
00111011111110011110001001101000
00111101000100011000111010110101
10111101111101000101100010100011
10111110000101000000001111101100
10111101011000110001011101100010
10111100101100011101101000110111
00111110000110001000000110111000
00111101101110011110001111110000
00111100100001011010010001100010
00111110110101010000011000001010
10111110000001001101000110000111
00111101010010001001010000111011
10111110110101110100111111110000
10111110100100000111011101100110
00111101000001010101100010011000
10111110101001110011100110000101
10111110110101011000100100110100
10111111000110101111111110111110
10111111100001001011100001011010
00111100101111110101111010011110
00111110010100011101010000101110
00111111000000010000100000011110
00111110111110111110011100110100
00111110110100100001101110001001
00111110010011100111010100111001
00111110001011110111101111111010
10111110101000101100001010011000
00111110001000011001111100110010
10111101000001000110111111101100
10111111001011011100101100110101
10111110111111100000101011010001
00111101110001100001000101101111
10111110110101111010011110111101
10111111010001101101010001110000
10111111001000110111111010111101
10111110111110000101111100110001
10111111001100011010110111010100
10111111011000011111010100101001
10111111011011110011001110111110
11000000000010000110101100011001
10111111101001000110000111100100
10111111010010010101000101011111
10111110100011100101000110101111
