00111111101001000001001111110011
00111111010100111010011000100111
00111111000110000001111011001101
00111110111000111101010111011100
10111110101010011010001000010110
10111110111111010100000100101010
10111110100010010110100101110010
10111110101001111110011010111001
00111110010111011011110111010001
00111101111100001110101001111010
10111101010000100111010001101111
10111100111100111001001110110100
00111111001111101010100000010111
00111111100001101111001111110010
10111111001000110110001111010101
10111111010101011001100110001011
10111111000011010101001000110001
10111110101000101001101001011010
10111101011110011010010101110011
10111110100111010101010010111100
00111110001000000011110000100111
00111110011001000001000100000001
00111101010100111011101110000000
00111100010100010010111100011110
00111110010110001110110000000010
00111111010011111000110010100011
00111110010001100100111011001010
10111111000100101010101100110001
00111101100000110011101111100110
00111110000011010010110100110101
00111110001001000001110101010010
00111011001100011101111111001000
10111110000000010001011111110010
10111101100111000000000000110000
10111101100000111111000101111111
00111101111111111000011111000111
00111011011011110001100100100001
00111101110011100000000111010001
00111111010110011010011011001000
10111110110010010001000100000111
10111111010000110000100101001001
10111110001110001101100011010110
10111101101001101000011111010101
00111100101000110001001101101110
00111101010010001011001011011111
10111101100000101010110011110010
10111101010111010101001001111111
00111101110111000100110000010011
00111110011000110010000100100011
00111110100010100100101110011001
00111110100010101110001100101100
00111110111100101001111110111111
10111111010100111001101101000100
10111111000110100010010101111110
10111110010110011110110110001001
00111110001001001100001011001010
00111110100010101101001100001100
00111110100110000111001001111011
10111110001000001101010010010111
10111111000001000100001011111101
10111110110001101000000000111111
10111110010010000010010111111001
10111110011101110010000001110110
00111111011101110101100001110010
00111111110111101000100010000010
10111110110010110000100111011011
00111101100100001101110001011010
00111110100110111110100110010010
00111110001000100011001001100100
10111110001110010101110110110101
00111110110110011100111111111110
00111101111011000011001001000100
10111110100110101110000011010000
10111110101100110001110100000111
10111110001100010100101001110110
10111111011010000100010111111011
10111110101100100011101101110010
00111111111101111000011011000001
00111110011100010111010111001101
10111101110000101110110001010000
10111110001010111001000001000100
10111100100001000011110000101001
00111110101001101100111111110100
00111110100010001100010111110110
00111101010011111010110110100101
10111110111111111010101111001111
10111110010100011101111110010101
10111110001001111000010010001111
10111110111101100011010011010000
10111111010000101100011110010110
10111111111011010110011111000000
00111110110110110000110110110100
10111110101000111101011000111101
10111110000110111111110000101110
10111110100001010011110011100001
00111110000000111011001110101110
10111101100110110000010100000111
10111110011011111100011100011101
10111110110111100001101101010001
10111110000110010111011001011011
10111101100111101110111101100100
00111100000011101100000110100000
00111111000000010011110110101111
10111110110000110010100100101000
00111110100111010001011000111110
00111110011111111000010110111011
00111110110110011100001000000001
10111110111010100100101010111011
10111110000111100111001110011100
10111110110011011101100001110111
10111110110110111100101011011110
10111101110110100101000011011110
00111110101000000010101100000001
00111101000111001011001011011010
00111101000111011011100111110011
10111101011010110101011110100101
10111110101100111111111110010111
00111110110111001100100110000011
00111110001111110001110011111100
00111110100100111101100010111001
00111110101111110110001011000010
10111100110111010011011011010001
10111100111000111010011001010101
00111101110001110010110000000110
00111101110011000001111010111100
00111101100010010011100001110111
00111101001101100010010011100010
00111101101100110101010011011110
00111110001110110000011000000100
00111011100100101011111100001100
00111110100011010011101001110110
00111110000111000001011011110110
10111110010100110111010010011000
00111101111011101100001010011000
00111101110110100010010011000011
00111101111000010111000000010101
00111101100001110101101000101111
00111101111110010000001001011110
00111110010100011110110111100010
00111101001111010001110010000110
00111110111001010001111001111110
00111110110001110110111110101110
10111101101100101100010011111111
00111111000101111100110101100100
00111110101110101010000110110111
10111001001110000110111110110001
00111100111011010100101101100111
00111110000001000010000100110100
00111110011000110011000000010100
00111110000100111100110001110011
00111110000000000001101111011111
00111101001111111000100110111111
10111101110101010001011100001001
00111110000001001000000011010010
10111101110101011001110001000001
00111110010100111001000100011001
00111111100001010100110010101111
00111111010000110101000110001001
10111110001011111101111101000000
10111101111111110011110101110100
00111110010111100010000010100111
00111110000011011000000111011011
00111110101101001101110000001101
00111101101101011110010111000000
00111110100100010110001011111100
00111110100011010111101110111011
00111111000110001000001011101001
00111111100011011110111011000001
00111111011100100100001100010100
