00111101110110100010000001011000
00111110000001010110111000010010
00111101110011111011000000010011
10111101011001000000110100100001
10111111000111110100101001111000
10111111100001000000111011010101
10111111100111000111010100110100
10111111100111100100110100010100
10111111000111100100010000101010
10111110101010000101011100101001
10111101010110010110110101111110
00111101101000101110001001101011
00111110010001001110010111111000
00111110000000000101101000111000
10111110000110111101010011000111
10111110101100000000000101011000
10111111100100100111010101101100
10111110001100100001011010100101
00111110010100100111111010100011
10111110111110100111010000011010
10111111011101010100101001111011
10111110110001110010001001001111
10111111010000010001100111010100
10111111100010011001001101101110
10111110110101000100111011000110
10111110000001111111011001010011
00111011111101011110001110111101
10111111100011011101010111100111
10111111010100000000001010001101
00111101100100101000110110001001
00111110100000101111001100101111
00111101110001111100000010011000
00111110001001010010110101010100
00111110000000101011011101010111
00111110000110100111011100100101
00111101101110000010100101110011
10111110000111100010010010111100
10111111100000000011111000001011
10111110000001010111011011111101
10111110110000101010111011001111
10111111001011111011011000011101
10111101001001100101100001100001
10111101001000010101000010000011
10111110101011011100101101100101
00111110100001111011000100111110
00111111010001001101010011110010
00111111001111001100010111110011
00111110100000100100100100110001
10111101000101000001100100001111
00111110000010100101011110010010
10111110110011010001010110010001
10111110100010000011010001100000
10111111010110000100010111000001
10111110001010111100111011011101
00111110000100111000111100000100
00111101001110000001111101111010
00111110001011001101000100001111
00111110001010000100100110111100
10111101001011101001000011110001
10111110010010101001110010010011
10111101110001011010110010000110
10111101100101010110010100001100
10111110000000011001010111011011
10111111001000010011110111010101
10111111001011010001110000101000
10111111000000001010101000111010
00111110000110110001110011100001
00111110011001001011100100101110
00111110011001000000010001010110
00111111000010100001011000010110
00111100111111111010011011000100
10111101110111111110101110010111
00111110100011100001011010000010
00111110110000111011111001101111
00111110111111111101000100100011
00111110011111101010100100100111
00111101101000000011001010000101
10111111010100010000100000100100
10111110100010000110110100011111
00111110111101110100010111111101
00111110100101110010001110010000
00111110010011010100001011010100
00111110010100011101101000001100
10111110111111110100101101011000
00111110011001111010101011100111
00111110111101011100100010011010
00111110101101100000010011000011
00111101110011100001001101101110
00111110111011011011010100101101
10111110111001000011110101011110
11000000000010100101011100000110
00111101110111111110010101010011
00111101110010110100100101010000
10111101000010101111000001010011
10111100110001001011010111111000
10111101100001100110011001011100
00111101011110011001011010010010
10111110101100110011100100100001
00111101111010001110111001110011
00111110011110111100000111100100
10111110011100011101110010010101
10111101101111111001000111110011
10111111011101010001101111110010
10111111101000001101110111100111
10111111001100011000101010100110
10111111000101101000001011101100
10111110000000110001011100001011
10111100111000110111101100100101
00111110011101001111101011010010
10111110001101011110100111101001
10111101101011010000001001011110
00111110101111111101000000001101
10111101010010100100010000111100
10111110000111101001010101010110
10111110101000100100001011000000
10111111000101101100101110100001
10111111101110111001110111111101
10111111010001111101010101010101
10111111000010100101010110011101
10111110001110110110101010010111
00111101101000111111010110111110
10111110111110101000010000100011
10111111001101111000111001001101
10111110101001001001000111000001
10111110001000101010010110001110
10111111001001010100011000010111
00111110010001111001111110001010
10111110111001000001010001110000
10111111010110001000111011001100
00111110101000100001100000010111
10111110100011000010000001000000
00111110001001010010101000100000
10111011100101000110111011101001
10111110010101111011110100010110
10111110100111101100101011011101
10111101111011011111111101101011
10111100100000100000001011000101
10111110100001000100000001111000
10111110001001000100000011111100
10111110110011110110100001101001
10111111000001011010001011000111
00111100000011101111001010010000
00111111000001111011011101001001
10111101000110100100100110111010
10111110110011100111010000011111
10111111000100010010110001011010
10111110101100110000010101010110
10111101110101110101101100111011
10111110100110111011100001101001
10111110110001100100011000111100
10111110100011011100100010000111
10111110100000101110001101101000
10111110011100111100100001010000
00111110001001100000111001110101
00111111011010011000010001101100
00111100111110100010101011001011
00111100001010011011101111010011
00111110111010101100111100100110
00111111010110100000101010001111
00111110110001111001111011101110
00111110011110000011100000111000
00111110010101000011110011011110
00111110001010010000101000111100
00111110000101100000010010111011
00111110101001011110011100111010
00111110101110001010010010110010
00111111010001001101011110010101
10111110100100111000011100000110
10111111000101010001011011101110
